<COLLADA xmlns="http://www.collada.org/2005/11/COLLADASchema" version="1.4.1">
  <asset>
    <created>2014-12-02T09:38:59.416000</created>
    <modified>2014-12-02T09:38:59.416000</modified>
    <up_axis>Y_UP</up_axis>
  </asset>
  <library_geometries>
    <geometry id="geometry0" name="MySphere">
      <mesh>
        <source id="verts-array">
          <float_array count="0" id="verts-array-array" />
          <technique_common>
            <accessor count="0" source="#verts-array-array" stride="3">
              <param name="X" type="float" />
              <param name="Y" type="float" />
              <param name="Z" type="float" />
            </accessor>
          </technique_common>
        </source>
        <vertices id="verts-array-vertices">
          <input semantic="POSITION" source="#verts-array" />
        </vertices>
        <triangles count="0" material="">
          <input offset="0" semantic="VERTEX" source="#verts-array-vertices" />
          <p />
        </triangles>
      </mesh>
    </geometry>
  </library_geometries>
  <library_visual_scenes>
    <visual_scene id="mcubes_scene">
      <node id="MySphere" name="MySphere">
        <instance_geometry url="#geometry0" />
      </node>
    </visual_scene>
  </library_visual_scenes>
  <scene>
    <instance_visual_scene url="#mcubes_scene" />
  </scene>
</COLLADA>
